 ,Label,X,Y,Frame
1,ConcatenatedWellA01.tif_crop0.tif:0070-0824,824,70,6666
2,ConcatenatedWellA01.tif_crop1.tif:0064-0684,684,64,5
3,ConcatenatedWellA01.tif_crop10.tif:0066-1135,1135,66,1000
4,ConcatenatedWellA01.tif_crop11.tif:0062-0982,982,62,9999
5,ConcatenatedWellA01.tif_crop12.tif:0056-1148,1148,56,1000
